<?xml version="1.0" encoding="UTF-8" standalone="no"?>
<!-- Created with Inkscape (http://www.inkscape.org/) -->

<svg
   xmlns:dc="http://purl.org/dc/elements/1.1/"
   xmlns:cc="http://creativecommons.org/ns#"
   xmlns:rdf="http://www.w3.org/1999/02/22-rdf-syntax-ns#"
   xmlns:svg="http://www.w3.org/2000/svg"
   xmlns="http://www.w3.org/2000/svg"
   xmlns:sodipodi="http://sodipodi.sourceforge.net/DTD/sodipodi-0.dtd"
   xmlns:inkscape="http://www.inkscape.org/namespaces/inkscape"
   width="103.68612mm"
   height="79.236427mm"
   viewBox="0 0 367.39176 280.75899"
   id="svg5508"
   version="1.1"
   inkscape:version="0.91 r"
   sodipodi:docname="doubly-linked-list.svg">
  <defs
     id="defs5510">
    <marker
       inkscape:stockid="Arrow2Mend"
       orient="auto"
       refY="0"
       refX="0"
       id="marker6611"
       style="overflow:visible"
       inkscape:isstock="true">
      <path
         id="path6613"
         style="fill:#c8e6c9;fill-opacity:1;fill-rule:evenodd;stroke:#c8e6c9;stroke-width:0.625;stroke-linejoin:round;stroke-opacity:1"
         d="M 8.7185878,4.0337352 -2.2072895,0.01601326 8.7185884,-4.0017078 c -1.7454984,2.3720609 -1.7354408,5.6174519 -6e-7,8.035443 z"
         transform="scale(-0.6,-0.6)"
         inkscape:connector-curvature="0" />
    </marker>
    <marker
       inkscape:stockid="Arrow2Mend"
       orient="auto"
       refY="0"
       refX="0"
       id="Arrow2Mend"
       style="overflow:visible"
       inkscape:isstock="true">
      <path
         id="path4285"
         style="fill:#c8e6c9;fill-opacity:1;fill-rule:evenodd;stroke:#c8e6c9;stroke-width:0.625;stroke-linejoin:round;stroke-opacity:1"
         d="M 8.7185878,4.0337352 -2.2072895,0.01601326 8.7185884,-4.0017078 c -1.7454984,2.3720609 -1.7354408,5.6174519 -6e-7,8.035443 z"
         transform="scale(-0.6,-0.6)"
         inkscape:connector-curvature="0" />
    </marker>
    <marker
       inkscape:stockid="Arrow2Mend"
       orient="auto"
       refY="0"
       refX="0"
       id="Arrow2Mend-9"
       style="overflow:visible"
       inkscape:isstock="true">
      <path
         inkscape:connector-curvature="0"
         id="path4285-2"
         style="fill:#c8e6c9;fill-opacity:1;fill-rule:evenodd;stroke:#c8e6c9;stroke-width:0.625;stroke-linejoin:round;stroke-opacity:1"
         d="M 8.7185878,4.0337352 -2.2072895,0.01601326 8.7185884,-4.0017078 c -1.7454984,2.3720609 -1.7354408,5.6174519 -6e-7,8.035443 z"
         transform="scale(-0.6,-0.6)" />
    </marker>
    <marker
       inkscape:stockid="Arrow2Mend"
       orient="auto"
       refY="0"
       refX="0"
       id="Arrow2Mend-9-2"
       style="overflow:visible"
       inkscape:isstock="true">
      <path
         inkscape:connector-curvature="0"
         id="path4285-2-3"
         style="fill:#c8e6c9;fill-opacity:1;fill-rule:evenodd;stroke:#c8e6c9;stroke-width:0.625;stroke-linejoin:round;stroke-opacity:1"
         d="M 8.7185878,4.0337352 -2.2072895,0.01601326 8.7185884,-4.0017078 c -1.7454984,2.3720609 -1.7354408,5.6174519 -6e-7,8.035443 z"
         transform="scale(-0.6,-0.6)" />
    </marker>
    <marker
       inkscape:stockid="Arrow2Mend"
       orient="auto"
       refY="0"
       refX="0"
       id="marker6611-9"
       style="overflow:visible"
       inkscape:isstock="true">
      <path
         inkscape:connector-curvature="0"
         id="path6613-2"
         style="fill:#c8e6c9;fill-opacity:1;fill-rule:evenodd;stroke:#c8e6c9;stroke-width:0.625;stroke-linejoin:round;stroke-opacity:1"
         d="M 8.7185878,4.0337352 -2.2072895,0.01601326 8.7185884,-4.0017078 c -1.7454984,2.3720609 -1.7354408,5.6174519 -6e-7,8.035443 z"
         transform="scale(-0.6,-0.6)" />
    </marker>
    <marker
       inkscape:stockid="Arrow2Mend"
       orient="auto"
       refY="0"
       refX="0"
       id="Arrow2Mend-9-28"
       style="overflow:visible"
       inkscape:isstock="true">
      <path
         inkscape:connector-curvature="0"
         id="path4285-2-9"
         style="fill:#c8e6c9;fill-opacity:1;fill-rule:evenodd;stroke:#c8e6c9;stroke-width:0.625;stroke-linejoin:round;stroke-opacity:1"
         d="M 8.7185878,4.0337352 -2.2072895,0.01601326 8.7185884,-4.0017078 c -1.7454984,2.3720609 -1.7354408,5.6174519 -6e-7,8.035443 z"
         transform="scale(-0.6,-0.6)" />
    </marker>
    <marker
       inkscape:stockid="Arrow2Mend"
       orient="auto"
       refY="0"
       refX="0"
       id="Arrow2Mend-7"
       style="overflow:visible"
       inkscape:isstock="true">
      <path
         inkscape:connector-curvature="0"
         id="path4285-3"
         style="fill:#c8e6c9;fill-opacity:1;fill-rule:evenodd;stroke:#c8e6c9;stroke-width:0.625;stroke-linejoin:round;stroke-opacity:1"
         d="M 8.7185878,4.0337352 -2.2072895,0.01601326 8.7185884,-4.0017078 c -1.7454984,2.3720609 -1.7354408,5.6174519 -6e-7,8.035443 z"
         transform="scale(-0.6,-0.6)" />
    </marker>
  </defs>
  <sodipodi:namedview
     id="base"
     pagecolor="#ffffff"
     bordercolor="#666666"
     borderopacity="1.0"
     inkscape:pageopacity="0.0"
     inkscape:pageshadow="2"
     inkscape:zoom="0.7"
     inkscape:cx="434.7232"
     inkscape:cy="10.933781"
     inkscape:document-units="px"
     inkscape:current-layer="layer1"
     showgrid="false"
     showguides="true"
     inkscape:guide-bbox="true"
     inkscape:snap-center="true"
     fit-margin-top="0"
     fit-margin-left="0"
     fit-margin-right="0"
     fit-margin-bottom="0"
     inkscape:window-width="1855"
     inkscape:window-height="1056"
     inkscape:window-x="65"
     inkscape:window-y="24"
     inkscape:window-maximized="1">
    <inkscape:grid
       type="xygrid"
       id="grid6062"
       originx="-181.72118"
       originy="-545.9242" />
    <sodipodi:guide
       position="185.97435,193.50743"
       orientation="1,0"
       id="guide6107" />
  </sodipodi:namedview>
  <metadata
     id="metadata5513">
    <rdf:RDF>
      <cc:Work
         rdf:about="">
        <dc:format>image/svg+xml</dc:format>
        <dc:type
           rdf:resource="http://purl.org/dc/dcmitype/StillImage" />
        <dc:title></dc:title>
      </cc:Work>
    </rdf:RDF>
  </metadata>
  <g
     inkscape:label="Layer 1"
     inkscape:groupmode="layer"
     id="layer1"
     transform="translate(-181.72118,-225.67899)">
    <rect
       style="fill:#388e3c;fill-opacity:1;stroke:#388e3c;stroke-width:1.70000005;stroke-miterlimit:4;stroke-dasharray:none;stroke-dashoffset:0;stroke-opacity:1"
       id="rect4142-7-5-6"
       width="260"
       height="62.857143"
       x="237.69553"
       y="226.52899"
       rx="7.0866098"
       ry="7.0866098" />
    <path
       style="fill:none;fill-rule:evenodd;stroke:#c8e6c9;stroke-width:2.20000005;stroke-linecap:butt;stroke-linejoin:miter;stroke-miterlimit:4;stroke-dasharray:none;stroke-opacity:1;marker-end:url(#Arrow2Mend)"
       d="m 518.42857,265.21934 c 0,0 50,20 20,40 -30,20 -30,20 -30,20"
       id="path6064"
       inkscape:connector-curvature="0" />
    <rect
       style="fill:#388e3c;fill-opacity:1;stroke:#388e3c;stroke-width:1.70000005;stroke-miterlimit:4;stroke-dasharray:none;stroke-dashoffset:0;stroke-opacity:1"
       id="rect4142-7-5-6-8"
       width="260"
       height="62.857143"
       x="237.69553"
       y="298.52899"
       rx="7.0866098"
       ry="7.0866098" />
    <rect
       style="fill:#388e3c;fill-opacity:1;stroke:#388e3c;stroke-width:1.70000005;stroke-miterlimit:4;stroke-dasharray:none;stroke-dashoffset:0;stroke-opacity:1"
       id="rect4142-7-5-6-8-7"
       width="260"
       height="62.857143"
       x="237.69553"
       y="370.41571"
       rx="7.0866098"
       ry="7.0866098" />
    <path
       style="fill:none;fill-rule:evenodd;stroke:#c8e6c9;stroke-width:2.20000005;stroke-linecap:butt;stroke-linejoin:miter;stroke-miterlimit:4;stroke-dasharray:none;stroke-opacity:1;marker-end:url(#Arrow2Mend-9)"
       d="m 515.35602,341.84974 c 0,0 50,20 20,40 -30,20 -30,20 -30,20"
       id="path6064-0"
       inkscape:connector-curvature="0" />
    <rect
       style="fill:#388e3c;fill-opacity:1;stroke:#388e3c;stroke-width:1.70000005;stroke-miterlimit:4;stroke-dasharray:none;stroke-dashoffset:0;stroke-opacity:1"
       id="rect4142-7-5-6-8-7-7"
       width="260"
       height="62.857143"
       x="237.69553"
       y="442.73083"
       rx="7.0866098"
       ry="7.0866098" />
    <path
       style="fill:none;fill-rule:evenodd;stroke:#c8e6c9;stroke-width:2.20000005;stroke-linecap:butt;stroke-linejoin:miter;stroke-miterlimit:4;stroke-dasharray:none;stroke-opacity:1;marker-end:url(#marker6611)"
       d="m 513.35602,420.16488 c 0,0 50,20 20,40 -30,20 -30,20 -30,20"
       id="path6064-0-5"
       inkscape:connector-curvature="0" />
    <path
       style="fill:none;fill-rule:evenodd;stroke:#c8e6c9;stroke-width:2.20000005;stroke-linecap:butt;stroke-linejoin:miter;stroke-miterlimit:4;stroke-dasharray:13.20000029, 4.4000001;stroke-dashoffset:0;stroke-opacity:1;marker-end:url(#Arrow2Mend-7)"
       d="m 217.4781,308.66269 c 0,0 -50,-20 -20,-40 30,-20 30,-20 30,-20"
       id="path6064-6"
       inkscape:connector-curvature="0" />
    <path
       style="fill:none;fill-rule:evenodd;stroke:#c8e6c9;stroke-width:2.20000005;stroke-linecap:butt;stroke-linejoin:miter;stroke-miterlimit:4;stroke-dasharray:13.20000029, 4.4000001;stroke-dashoffset:0;stroke-opacity:1;marker-end:url(#Arrow2Mend-9-28)"
       d="m 214.40555,385.29309 c 0,0 -50,-20 -20,-40 30,-20 30,-20 30,-20"
       id="path6064-0-1"
       inkscape:connector-curvature="0" />
    <path
       style="fill:none;fill-rule:evenodd;stroke:#c8e6c9;stroke-width:2.20000005;stroke-linecap:butt;stroke-linejoin:miter;stroke-miterlimit:4;stroke-dasharray:13.20000029, 4.4000001;stroke-dashoffset:0;stroke-opacity:1;marker-end:url(#marker6611-9)"
       d="m 212.40555,463.60823 c 0,0 -50,-20 -20,-40 30,-20 30,-20 30,-20"
       id="path6064-0-5-2"
       inkscape:connector-curvature="0" />
  </g>
</svg>
