<?xml version="1.0" encoding="UTF-8" standalone="no"?>
<!-- Created with Inkscape (http://www.inkscape.org/) -->

<svg
   xmlns:dc="http://purl.org/dc/elements/1.1/"
   xmlns:cc="http://creativecommons.org/ns#"
   xmlns:rdf="http://www.w3.org/1999/02/22-rdf-syntax-ns#"
   xmlns:svg="http://www.w3.org/2000/svg"
   xmlns="http://www.w3.org/2000/svg"
   xmlns:sodipodi="http://sodipodi.sourceforge.net/DTD/sodipodi-0.dtd"
   xmlns:inkscape="http://www.inkscape.org/namespaces/inkscape"
   width="171.14862mm"
   height="123.01723mm"
   viewBox="0 0 606.43211 435.88784"
   id="svg7234"
   version="1.1"
   inkscape:version="0.91 r"
   sodipodi:docname="example-of-a-trie.svg">
  <defs
     id="defs7236">
    <marker
       inkscape:isstock="true"
       style="overflow:visible"
       id="marker8418"
       refX="0"
       refY="0"
       orient="auto"
       inkscape:stockid="Arrow1Lend">
      <path
         transform="matrix(-0.8,0,0,-0.8,-10,0)"
         style="fill:#c8e6c9;fill-opacity:1;fill-rule:evenodd;stroke:#c8e6c9;stroke-width:1pt;stroke-opacity:1"
         d="M 0,0 5,-5 -12.5,0 5,5 0,0 Z"
         id="path8420"
         inkscape:connector-curvature="0" />
    </marker>
    <marker
       inkscape:isstock="true"
       style="overflow:visible"
       id="marker8308"
       refX="0"
       refY="0"
       orient="auto"
       inkscape:stockid="Arrow2Mend">
      <path
         transform="scale(-0.6,-0.6)"
         d="M 8.7185878,4.0337352 -2.2072895,0.01601326 8.7185884,-4.0017078 c -1.7454984,2.3720609 -1.7354408,5.6174519 -6e-7,8.035443 z"
         style="fill:#c8e6c9;fill-opacity:1;fill-rule:evenodd;stroke:#c8e6c9;stroke-width:0.625;stroke-linejoin:round;stroke-opacity:1"
         id="path8310"
         inkscape:connector-curvature="0" />
    </marker>
    <marker
       inkscape:isstock="true"
       style="overflow:visible"
       id="marker8230"
       refX="0"
       refY="0"
       orient="auto"
       inkscape:stockid="Arrow2Lend">
      <path
         transform="matrix(-1.1,0,0,-1.1,-1.1,0)"
         d="M 8.7185878,4.0337352 -2.2072895,0.01601326 8.7185884,-4.0017078 c -1.7454984,2.3720609 -1.7354408,5.6174519 -6e-7,8.035443 z"
         style="fill:#c8e6c9;fill-opacity:1;fill-rule:evenodd;stroke:#c8e6c9;stroke-width:0.625;stroke-linejoin:round;stroke-opacity:1"
         id="path8232"
         inkscape:connector-curvature="0" />
    </marker>
  </defs>
  <sodipodi:namedview
     id="base"
     pagecolor="#ffffff"
     bordercolor="#666666"
     borderopacity="1.0"
     inkscape:pageopacity="0.0"
     inkscape:pageshadow="2"
     inkscape:zoom="1.4"
     inkscape:cx="296.68661"
     inkscape:cy="200.93914"
     inkscape:document-units="px"
     inkscape:current-layer="layer1"
     showgrid="false"
     showguides="false"
     inkscape:snap-bbox="false"
     inkscape:snap-center="true"
     fit-margin-top="0"
     fit-margin-left="0"
     fit-margin-right="0"
     fit-margin-bottom="0"
     inkscape:window-width="1301"
     inkscape:window-height="744"
     inkscape:window-x="65"
     inkscape:window-y="24"
     inkscape:window-maximized="1">
    <inkscape:grid
       type="xygrid"
       id="grid7259"
       spacingx="2.5"
       spacingy="2.5000001"
       originx="-46.708458"
       originy="-592.40371" />
  </sodipodi:namedview>
  <metadata
     id="metadata7239">
    <rdf:RDF>
      <cc:Work
         rdf:about="">
        <dc:format>image/svg+xml</dc:format>
        <dc:type
           rdf:resource="http://purl.org/dc/dcmitype/StillImage" />
        <dc:title></dc:title>
      </cc:Work>
    </rdf:RDF>
  </metadata>
  <g
     inkscape:label="Layer 1"
     inkscape:groupmode="layer"
     id="layer1"
     transform="translate(-46.708491,-24.070677)">
    <circle
       style="fill:#388e3c;fill-opacity:1;stroke:#c8e6c9;stroke-width:0.67475498;stroke-miterlimit:4;stroke-dasharray:0.67475496, 1.34950992;stroke-dashoffset:0;stroke-opacity:1"
       id="path7242"
       cx="75"
       cy="252.36221"
       r="27.954132" />
    <circle
       style="fill:#388e3c;fill-opacity:1;stroke:#c8e6c9;stroke-width:0.67475498;stroke-miterlimit:4;stroke-dasharray:0.67475496, 1.34950992;stroke-dashoffset:0;stroke-opacity:1"
       id="path7242-6"
       cx="200"
       cy="252.36221"
       r="27.954132" />
    <path
       style="fill:none;fill-rule:evenodd;stroke:#c8e6c9;stroke-width:1.70000017;stroke-linecap:butt;stroke-linejoin:miter;stroke-miterlimit:4;stroke-dasharray:none;stroke-opacity:1;marker-end:url(#Arrow1Lend)"
       d="m 112.5,252.36219 50,0"
       id="path7261"
       inkscape:connector-curvature="0" />
    <circle
       style="fill:#388e3c;fill-opacity:1;stroke:#c8e6c9;stroke-width:0.67475498;stroke-miterlimit:4;stroke-dasharray:0.67475496, 1.34950992;stroke-dashoffset:0;stroke-opacity:1"
       id="path7242-6-3"
       cx="287.5"
       cy="164.86218"
       r="27.954132" />
    <path
       style="fill:none;fill-rule:evenodd;stroke:#c8e6c9;stroke-width:1.70000017;stroke-linecap:butt;stroke-linejoin:miter;stroke-miterlimit:4;stroke-dasharray:none;stroke-opacity:1;marker-end:url(#Arrow1Lend)"
       d="m 262.5,189.86219 -37.5,37.5"
       id="path7289"
       inkscape:connector-curvature="0" />
    <text
       xml:space="preserve"
       style="font-style:normal;font-weight:normal;font-size:40px;line-height:125%;font-family:sans-serif;letter-spacing:0px;word-spacing:0px;fill:#212121;fill-opacity:1;stroke:none;stroke-width:1px;stroke-linecap:butt;stroke-linejoin:miter;stroke-opacity:1"
       x="136.58691"
       y="242.60144"
       id="text7291"
       sodipodi:linespacing="125%"><tspan
         sodipodi:role="line"
         id="tspan7293"
         x="136.58691"
         y="242.60144"
         style="font-style:normal;font-variant:normal;font-weight:normal;font-stretch:normal;font-size:20px;font-family:'Droid Sans';-inkscape-font-specification:'Droid Sans';fill:#212121;fill-opacity:1">J</tspan></text>
    <text
       xml:space="preserve"
       style="font-style:normal;font-weight:normal;font-size:40px;line-height:125%;font-family:sans-serif;letter-spacing:0px;word-spacing:0px;fill:#212121;fill-opacity:1;stroke:none;stroke-width:1px;stroke-linecap:butt;stroke-linejoin:miter;stroke-opacity:1"
       x="228.33789"
       y="203.7655"
       id="text7291-9"
       sodipodi:linespacing="125%"><tspan
         sodipodi:role="line"
         id="tspan7293-0"
         x="228.33789"
         y="203.7655"
         style="font-style:normal;font-variant:normal;font-weight:normal;font-stretch:normal;font-size:20px;font-family:'Droid Sans';-inkscape-font-specification:'Droid Sans';fill:#212121;fill-opacity:1">O</tspan></text>
    <circle
       style="fill:#388e3c;fill-opacity:1;stroke:#c8e6c9;stroke-width:0.67475498;stroke-miterlimit:4;stroke-dasharray:0.67475496, 1.34950992;stroke-dashoffset:0;stroke-opacity:1"
       id="path7242-6-3-8"
       cx="387.5"
       cy="77.362183"
       r="27.954132" />
    <path
       style="fill:none;fill-rule:evenodd;stroke:#c8e6c9;stroke-width:1.70000017;stroke-linecap:butt;stroke-linejoin:miter;stroke-miterlimit:4;stroke-dasharray:none;stroke-opacity:1;marker-end:url(#Arrow1Lend)"
       d="m 350,102.36219 -37.5,37.5"
       id="path7330"
       inkscape:connector-curvature="0" />
    <text
       xml:space="preserve"
       style="font-style:normal;font-weight:normal;font-size:40px;line-height:125%;font-family:sans-serif;letter-spacing:0px;word-spacing:0px;fill:#212121;fill-opacity:1;stroke:none;stroke-width:1px;stroke-linecap:butt;stroke-linejoin:miter;stroke-opacity:1"
       x="316.55972"
       y="115.21515"
       id="text7291-9-3"
       sodipodi:linespacing="125%"><tspan
         sodipodi:role="line"
         id="tspan7293-0-8"
         x="316.55972"
         y="115.21515"
         style="font-style:normal;font-variant:normal;font-weight:normal;font-stretch:normal;font-size:20px;font-family:'Droid Sans';-inkscape-font-specification:'Droid Sans';fill:#212121;fill-opacity:1">H</tspan></text>
    <circle
       style="fill:#388e3c;fill-opacity:1;stroke:#c8e6c9;stroke-width:0.67475498;stroke-miterlimit:4;stroke-dasharray:0.67475496, 1.34950992;stroke-dashoffset:0;stroke-opacity:1"
       id="path7242-6-3-8-7"
       cx="525"
       cy="52.362186"
       r="27.954132" />
    <path
       style="fill:none;fill-rule:evenodd;stroke:#c8e6c9;stroke-width:1.70000017;stroke-linecap:butt;stroke-linejoin:miter;stroke-miterlimit:4;stroke-dasharray:none;stroke-opacity:1;marker-end:url(#Arrow1Lend)"
       d="m 425,64.862186 62.5,-12.5"
       id="path7365"
       inkscape:connector-curvature="0" />
    <text
       xml:space="preserve"
       style="font-style:normal;font-weight:normal;font-size:40px;line-height:125%;font-family:sans-serif;letter-spacing:0px;word-spacing:0px;fill:#212121;fill-opacity:1;stroke:none;stroke-width:1px;stroke-linecap:butt;stroke-linejoin:miter;stroke-opacity:1"
       x="445.13113"
       y="51.286572"
       id="text7291-9-3-3"
       sodipodi:linespacing="125%"><tspan
         sodipodi:role="line"
         id="tspan7293-0-8-1"
         x="445.13113"
         y="51.286572"
         style="font-style:normal;font-variant:normal;font-weight:normal;font-stretch:normal;font-size:20px;font-family:'Droid Sans';-inkscape-font-specification:'Droid Sans';fill:#212121;fill-opacity:1">N</tspan></text>
    <circle
       style="fill:#388e3c;fill-opacity:1;stroke:#c8e6c9;stroke-width:0.67475498;stroke-miterlimit:4;stroke-dasharray:0.67475496, 1.34950992;stroke-dashoffset:0;stroke-opacity:1"
       id="path7242-6-3-8-0"
       cx="412.5"
       cy="164.86218"
       r="27.954132" />
    <path
       style="fill:none;fill-rule:evenodd;stroke:#c8e6c9;stroke-width:1.70000017;stroke-linecap:butt;stroke-linejoin:miter;stroke-miterlimit:4;stroke-dasharray:none;stroke-opacity:1"
       d="m 325,164.86219 50,0"
       id="path7400"
       inkscape:connector-curvature="0" />
    <text
       xml:space="preserve"
       style="font-style:normal;font-weight:normal;font-size:40px;line-height:125%;font-family:sans-serif;letter-spacing:0px;word-spacing:0px;fill:#212121;fill-opacity:1;stroke:none;stroke-width:1px;stroke-linecap:butt;stroke-linejoin:miter;stroke-opacity:1"
       x="344.35059"
       y="159.50085"
       id="text7291-9-3-0"
       sodipodi:linespacing="125%"><tspan
         sodipodi:role="line"
         id="tspan7293-0-8-5"
         x="344.35059"
         y="159.50085"
         style="font-style:normal;font-variant:normal;font-weight:normal;font-stretch:normal;font-size:20px;font-family:'Droid Sans';-inkscape-font-specification:'Droid Sans';fill:#212121;fill-opacity:1">E</tspan></text>
    <circle
       style="fill:#388e3c;fill-opacity:1;stroke:#c8e6c9;stroke-width:0.67475498;stroke-miterlimit:4;stroke-dasharray:0.67475496, 1.34950992;stroke-dashoffset:0;stroke-opacity:1"
       id="path7242-6-0"
       cx="287.5"
       cy="339.86218"
       r="27.954132" />
    <path
       style="fill:none;fill-rule:evenodd;stroke:#c8e6c9;stroke-width:1.70000017;stroke-linecap:butt;stroke-linejoin:miter;stroke-miterlimit:4;stroke-dasharray:none;stroke-opacity:1;marker-end:url(#Arrow1Lend)"
       d="m 225,277.36219 37.5,37.5"
       id="path7439"
       inkscape:connector-curvature="0" />
    <text
       xml:space="preserve"
       style="font-style:normal;font-weight:normal;font-size:40px;line-height:125%;font-family:sans-serif;letter-spacing:0px;word-spacing:0px;fill:#212121;fill-opacity:1;stroke:none;stroke-width:1px;stroke-linecap:butt;stroke-linejoin:miter;stroke-opacity:1"
       x="313.6709"
       y="291.99445"
       id="text7291-9-31"
       sodipodi:linespacing="125%"><tspan
         sodipodi:role="line"
         id="tspan7293-0-80"
         x="313.6709"
         y="291.99445"
         style="font-style:normal;font-variant:normal;font-weight:normal;font-stretch:normal;font-size:20px;font-family:'Droid Sans';-inkscape-font-specification:'Droid Sans';fill:#212121;fill-opacity:1">N</tspan></text>
    <circle
       style="fill:#388e3c;fill-opacity:1;stroke:#c8e6c9;stroke-width:0.67475498;stroke-miterlimit:4;stroke-dasharray:0.67475496, 1.34950992;stroke-dashoffset:0;stroke-opacity:1"
       id="path7242-6-0-1"
       cx="375"
       cy="252.36218"
       r="27.954132" />
    <path
       style="fill:none;fill-rule:evenodd;stroke:#c8e6c9;stroke-width:1.70000017;stroke-linecap:butt;stroke-linejoin:miter;stroke-miterlimit:4;stroke-dasharray:none;stroke-opacity:1"
       d="m 312.5,314.86219 37.5,-37.5"
       id="path7474"
       inkscape:connector-curvature="0" />
    <path
       style="fill:none;fill-rule:evenodd;stroke:#c8e6c9;stroke-width:1.70000017;stroke-linecap:butt;stroke-linejoin:miter;stroke-miterlimit:4;stroke-dasharray:none;stroke-opacity:1;marker-end:url(#Arrow1Lend)"
       d="m 412.5,252.36219 50,0"
       id="path7476"
       inkscape:connector-curvature="0" />
    <circle
       style="fill:#388e3c;fill-opacity:1;stroke:#c8e6c9;stroke-width:0.67475498;stroke-miterlimit:4;stroke-dasharray:0.67475496, 1.34950992;stroke-dashoffset:0;stroke-opacity:1"
       id="path7242-6-3-8-0-7"
       cx="500"
       cy="252.36218"
       r="27.954132" />
    <text
       xml:space="preserve"
       style="font-style:normal;font-weight:normal;font-size:40px;line-height:125%;font-family:sans-serif;letter-spacing:0px;word-spacing:0px;fill:#212121;fill-opacity:1;stroke:none;stroke-width:1px;stroke-linecap:butt;stroke-linejoin:miter;stroke-opacity:1"
       x="242.9209"
       y="288.24445"
       id="text7291-9-31-9"
       sodipodi:linespacing="125%"><tspan
         sodipodi:role="line"
         id="tspan7293-0-80-1"
         x="242.9209"
         y="288.24445"
         style="font-style:normal;font-variant:normal;font-weight:normal;font-stretch:normal;font-size:20px;font-family:'Droid Sans';-inkscape-font-specification:'Droid Sans';fill:#212121;fill-opacity:1">A</tspan></text>
    <text
       xml:space="preserve"
       style="font-style:normal;font-weight:normal;font-size:40px;line-height:125%;font-family:sans-serif;letter-spacing:0px;word-spacing:0px;fill:#212121;fill-opacity:1;stroke:none;stroke-width:1px;stroke-linecap:butt;stroke-linejoin:miter;stroke-opacity:1"
       x="431.49344"
       y="245.78659"
       id="text7291-9-3-0-0"
       sodipodi:linespacing="125%"><tspan
         sodipodi:role="line"
         id="tspan7293-0-8-5-3"
         x="431.49344"
         y="245.78659"
         style="font-style:normal;font-variant:normal;font-weight:normal;font-stretch:normal;font-size:20px;font-family:'Droid Sans';-inkscape-font-specification:'Droid Sans';fill:#212121;fill-opacity:1">E</tspan></text>
    <circle
       style="fill:#388e3c;fill-opacity:1;stroke:#c8e6c9;stroke-width:0.67475498;stroke-miterlimit:4;stroke-dasharray:0.67475496, 1.34950992;stroke-dashoffset:0;stroke-opacity:1"
       id="path7242-6-0-1-5"
       cx="375"
       cy="427.36218"
       r="27.954132" />
    <path
       style="fill:none;fill-rule:evenodd;stroke:#c8e6c9;stroke-width:1.70000017;stroke-linecap:butt;stroke-linejoin:miter;stroke-miterlimit:4;stroke-dasharray:none;stroke-opacity:1;marker-end:url(#Arrow1Lend)"
       d="m 412.5,427.36222 50,0"
       id="path7476-9"
       inkscape:connector-curvature="0" />
    <circle
       style="fill:#388e3c;fill-opacity:1;stroke:#c8e6c9;stroke-width:0.67475498;stroke-miterlimit:4;stroke-dasharray:0.67475496, 1.34950992;stroke-dashoffset:0;stroke-opacity:1"
       id="path7242-6-3-8-0-7-4"
       cx="500"
       cy="427.36218"
       r="27.954132" />
    <text
       xml:space="preserve"
       style="font-style:normal;font-weight:normal;font-size:40px;line-height:125%;font-family:sans-serif;letter-spacing:0px;word-spacing:0px;fill:#212121;fill-opacity:1;stroke:none;stroke-width:1px;stroke-linecap:butt;stroke-linejoin:miter;stroke-opacity:1"
       x="431.49344"
       y="420.78659"
       id="text7291-9-3-0-0-8"
       sodipodi:linespacing="125%"><tspan
         sodipodi:role="line"
         id="tspan7293-0-8-5-3-4"
         x="431.49344"
         y="420.78659"
         style="font-style:normal;font-variant:normal;font-weight:normal;font-stretch:normal;font-size:20px;font-family:'Droid Sans';-inkscape-font-specification:'Droid Sans';fill:#212121;fill-opacity:1">K</tspan></text>
    <path
       style="fill:none;fill-rule:evenodd;stroke:#c8e6c9;stroke-width:1.70000017;stroke-linecap:butt;stroke-linejoin:miter;stroke-miterlimit:4;stroke-dasharray:none;stroke-opacity:1;marker-end:url(#Arrow1Lend)"
       d="m 312.5,364.86219 25,25 12.5,12.5"
       id="path7558"
       inkscape:connector-curvature="0" />
    <text
       xml:space="preserve"
       style="font-style:normal;font-weight:normal;font-size:40px;line-height:125%;font-family:sans-serif;letter-spacing:0px;word-spacing:0px;fill:#212121;fill-opacity:1;stroke:none;stroke-width:1px;stroke-linecap:butt;stroke-linejoin:miter;stroke-opacity:1"
       x="335.14746"
       y="382.50574"
       id="text7291-9-3-0-0-8-6"
       sodipodi:linespacing="125%"><tspan
         sodipodi:role="line"
         id="tspan7293-0-8-5-3-4-9"
         x="335.14746"
         y="382.50574"
         style="font-style:normal;font-variant:normal;font-weight:normal;font-stretch:normal;font-size:20px;font-family:'Droid Sans';-inkscape-font-specification:'Droid Sans';fill:#212121;fill-opacity:1">C</tspan></text>
    <text
       xml:space="preserve"
       style="font-style:normal;font-weight:normal;font-size:17.50000191px;line-height:125%;font-family:sans-serif;letter-spacing:0px;word-spacing:0px;fill:#212121;fill-opacity:1;stroke:none;stroke-width:1px;stroke-linecap:butt;stroke-linejoin:miter;stroke-opacity:1"
       x="56.226284"
       y="297.26035"
       id="text7578"
       sodipodi:linespacing="125%"><tspan
         sodipodi:role="line"
         id="tspan7580"
         x="56.226284"
         y="297.26035"
         style="font-style:normal;font-variant:normal;font-weight:normal;font-stretch:normal;font-size:17.50000191px;font-family:'Droid Sans';-inkscape-font-specification:'Droid Sans';fill:#212121;fill-opacity:1">Root</tspan></text>
    <circle
       style="fill:#795548;fill-opacity:1;stroke:#c8e6c9;stroke-width:0.37303069;stroke-miterlimit:4;stroke-dasharray:0.37303069, 0.74606138;stroke-dashoffset:0;stroke-opacity:1"
       id="path7242-6-3-8-7-2"
       cx="637.5"
       cy="52.362186"
       r="15.454127" />
    <path
       style="fill:none;fill-rule:evenodd;stroke:#c8e6c9;stroke-width:1.70000017;stroke-linecap:butt;stroke-linejoin:miter;stroke-miterlimit:4;stroke-dasharray:none;stroke-opacity:1;marker-end:url(#Arrow1Lend)"
       d="m 562.5,52.362186 50,0"
       id="path8137"
       inkscape:connector-curvature="0" />
    <circle
       style="fill:#795548;fill-opacity:1;stroke:#c8e6c9;stroke-width:0.37303069;stroke-miterlimit:4;stroke-dasharray:0.37303069, 0.74606138;stroke-dashoffset:0;stroke-opacity:1"
       id="path7242-6-3-8-7-2-0"
       cx="525"
       cy="164.86218"
       r="15.454127" />
    <path
       style="fill:none;fill-rule:evenodd;stroke:#c8e6c9;stroke-width:1.70000017;stroke-linecap:butt;stroke-linejoin:miter;stroke-miterlimit:4;stroke-dasharray:none;stroke-opacity:1"
       d="m 450,164.86219 50,0"
       id="path8137-3"
       inkscape:connector-curvature="0" />
    <circle
       style="fill:#795548;fill-opacity:1;stroke:#c8e6c9;stroke-width:0.37303069;stroke-miterlimit:4;stroke-dasharray:0.37303069, 0.74606138;stroke-dashoffset:0;stroke-opacity:1"
       id="path7242-6-3-8-7-2-03"
       cx="612.5"
       cy="252.36218"
       r="15.454127" />
    <path
       style="fill:none;fill-rule:evenodd;stroke:#c8e6c9;stroke-width:1.70000017;stroke-linecap:butt;stroke-linejoin:miter;stroke-miterlimit:4;stroke-dasharray:none;stroke-opacity:1;marker-end:url(#Arrow1Lend)"
       d="m 537.5,252.36219 50,0"
       id="path8137-37"
       inkscape:connector-curvature="0" />
    <circle
       style="fill:#795548;fill-opacity:1;stroke:#c8e6c9;stroke-width:0.37303069;stroke-miterlimit:4;stroke-dasharray:0.37303069, 0.74606138;stroke-dashoffset:0;stroke-opacity:1"
       id="path7242-6-3-8-7-2-9"
       cx="612.5"
       cy="427.36218"
       r="15.454127" />
    <path
       style="fill:none;fill-rule:evenodd;stroke:#c8e6c9;stroke-width:1.70000017;stroke-linecap:butt;stroke-linejoin:miter;stroke-miterlimit:4;stroke-dasharray:none;stroke-opacity:1;marker-end:url(#Arrow1Lend)"
       d="m 537.5,427.36219 50,0"
       id="path8137-4"
       inkscape:connector-curvature="0" />
    <circle
       style="fill:#795548;fill-opacity:1;stroke:#c8e6c9;stroke-width:0.37303069;stroke-miterlimit:4;stroke-dasharray:0.37303069, 0.74606138;stroke-dashoffset:0;stroke-opacity:1"
       id="path7242-6-3-8-7-2-99"
       cx="212.5"
       cy="89.862183"
       r="15.454127" />
    <path
       style="fill:none;fill-rule:evenodd;stroke:#c8e6c9;stroke-width:1.70000017;stroke-linecap:butt;stroke-linejoin:miter;stroke-miterlimit:4;stroke-dasharray:none;stroke-opacity:1;marker-end:url(#Arrow1Lend)"
       d="m 262.5,139.86219 -37.5,-37.5"
       id="path8196"
       inkscape:connector-curvature="0" />
    <text
       xml:space="preserve"
       style="font-style:normal;font-weight:normal;font-size:40px;line-height:125%;font-family:sans-serif;letter-spacing:0px;word-spacing:0px;fill:#212121;fill-opacity:1;stroke:none;stroke-width:1px;stroke-linecap:butt;stroke-linejoin:miter;stroke-opacity:1"
       x="244.74083"
       y="117.6747"
       id="text7578-9"
       sodipodi:linespacing="125%"><tspan
         sodipodi:role="line"
         id="tspan7580-4"
         x="244.74083"
         y="117.6747"
         style="font-style:normal;font-variant:normal;font-weight:normal;font-stretch:normal;font-size:17.50000191px;font-family:'Droid Sans';-inkscape-font-specification:'Droid Sans';fill:#212121;fill-opacity:1">End</tspan></text>
    <text
       xml:space="preserve"
       style="font-style:normal;font-weight:normal;font-size:40px;line-height:125%;font-family:sans-serif;letter-spacing:0px;word-spacing:0px;fill:#212121;fill-opacity:1;stroke:none;stroke-width:1px;stroke-linecap:butt;stroke-linejoin:miter;stroke-opacity:1"
       x="572.49084"
       y="68.92469"
       id="text7578-9-2"
       sodipodi:linespacing="125%"><tspan
         sodipodi:role="line"
         id="tspan7580-4-0"
         x="572.49084"
         y="68.92469"
         style="font-style:normal;font-variant:normal;font-weight:normal;font-stretch:normal;font-size:17.50000191px;font-family:'Droid Sans';-inkscape-font-specification:'Droid Sans';fill:#212121;fill-opacity:1">End</tspan></text>
    <text
       xml:space="preserve"
       style="font-style:normal;font-weight:normal;font-size:40px;line-height:125%;font-family:sans-serif;letter-spacing:0px;word-spacing:0px;fill:#212121;fill-opacity:1;stroke:none;stroke-width:1px;stroke-linecap:butt;stroke-linejoin:miter;stroke-opacity:1"
       x="459.99081"
       y="181.4247"
       id="text7578-9-6"
       sodipodi:linespacing="125%"><tspan
         sodipodi:role="line"
         id="tspan7580-4-5"
         x="459.99081"
         y="181.4247"
         style="font-style:normal;font-variant:normal;font-weight:normal;font-stretch:normal;font-size:17.50000191px;font-family:'Droid Sans';-inkscape-font-specification:'Droid Sans';fill:#212121;fill-opacity:1">End</tspan></text>
    <text
       xml:space="preserve"
       style="font-style:normal;font-weight:normal;font-size:40px;line-height:125%;font-family:sans-serif;letter-spacing:0px;word-spacing:0px;fill:#212121;fill-opacity:1;stroke:none;stroke-width:1px;stroke-linecap:butt;stroke-linejoin:miter;stroke-opacity:1"
       x="547.49084"
       y="268.92471"
       id="text7578-9-9"
       sodipodi:linespacing="125%"><tspan
         sodipodi:role="line"
         id="tspan7580-4-56"
         x="547.49084"
         y="268.92471"
         style="font-style:normal;font-variant:normal;font-weight:normal;font-stretch:normal;font-size:17.50000191px;font-family:'Droid Sans';-inkscape-font-specification:'Droid Sans';fill:#212121;fill-opacity:1">End</tspan></text>
    <text
       xml:space="preserve"
       style="font-style:normal;font-weight:normal;font-size:40px;line-height:125%;font-family:sans-serif;letter-spacing:0px;word-spacing:0px;fill:#212121;fill-opacity:1;stroke:none;stroke-width:1px;stroke-linecap:butt;stroke-linejoin:miter;stroke-opacity:1"
       x="547.49084"
       y="443.92471"
       id="text7578-9-1"
       sodipodi:linespacing="125%"><tspan
         sodipodi:role="line"
         id="tspan7580-4-1"
         x="547.49084"
         y="443.92471"
         style="font-style:normal;font-variant:normal;font-weight:normal;font-stretch:normal;font-size:17.50000191px;font-family:'Droid Sans';-inkscape-font-specification:'Droid Sans';fill:#212121;fill-opacity:1">End</tspan></text>
    <text
       xml:space="preserve"
       style="font-style:normal;font-weight:normal;font-size:40px;line-height:125%;font-family:sans-serif;letter-spacing:0px;word-spacing:0px;fill:#000000;fill-opacity:1;stroke:none;stroke-width:1px;stroke-linecap:butt;stroke-linejoin:miter;stroke-opacity:1"
       x="64.565605"
       y="60.672752"
       id="text8627"
       sodipodi:linespacing="125%"><tspan
         sodipodi:role="line"
         id="tspan8629"
         x="64.565605"
         y="60.672752"
         style="font-style:normal;font-variant:normal;font-weight:normal;font-stretch:normal;font-size:17.50000191px;font-family:'Droid Sans';-inkscape-font-specification:'Droid Sans'">Jo</tspan><tspan
         sodipodi:role="line"
         x="64.565605"
         y="82.547752"
         style="font-style:normal;font-variant:normal;font-weight:normal;font-stretch:normal;font-size:17.50000191px;font-family:'Droid Sans';-inkscape-font-specification:'Droid Sans'"
         id="tspan8637">Joe</tspan><tspan
         sodipodi:role="line"
         x="64.565605"
         y="104.42275"
         style="font-style:normal;font-variant:normal;font-weight:normal;font-stretch:normal;font-size:17.50000191px;font-family:'Droid Sans';-inkscape-font-specification:'Droid Sans'"
         id="tspan8631">John</tspan><tspan
         sodipodi:role="line"
         x="64.565605"
         y="126.29775"
         style="font-style:normal;font-variant:normal;font-weight:normal;font-stretch:normal;font-size:17.50000191px;font-family:'Droid Sans';-inkscape-font-specification:'Droid Sans'"
         id="tspan8639">Jane</tspan><tspan
         sodipodi:role="line"
         x="64.565605"
         y="148.17274"
         style="font-style:normal;font-variant:normal;font-weight:normal;font-stretch:normal;font-size:17.50000191px;font-family:'Droid Sans';-inkscape-font-specification:'Droid Sans'"
         id="tspan8641">Jack</tspan><tspan
         sodipodi:role="line"
         x="64.565605"
         y="170.04774"
         style="font-style:normal;font-variant:normal;font-weight:normal;font-stretch:normal;font-size:17.50000191px;font-family:'Droid Sans';-inkscape-font-specification:'Droid Sans'"
         id="tspan8633" /></text>
  </g>
</svg>
